{
    "AWSTemplateFormatVersion": "2010-09-09",
    "Description": "AWS CloudFormation Sample Template LAMP_Multi_AZ: Create a highly available, scalable LAMP stack with an Amazon RDS database instance for the backend data store. This template demonstrates using the AWS CloudFormation bootstrap scripts to install the packages and files necessary to deploy the Apache web server and PHP at instance launch time. **WARNING** This template creates one or more Amazon EC2 instances, an Elastic Load Balancer and an Amazon RDS DB instance. You will be billed for the AWS resources used if you create a stack from this template.",
    "Parameters": {
        "DBName": {
            "Default": "MyDatabase",
            "Description": "MySQL database name",
            "Type": "String",
            "MinLength": "1",
            "MaxLength": "64",
            "AllowedPattern": "[a-zA-Z][a-zA-Z0-9]*",
            "ConstraintDescription": "must begin with a letter and contain only alphanumeric characters."
        },
        "DBUsername": {
            "NoEcho": "true",
            "Description": "Username for MySQL database access",
            "Type": "String",
            "MinLength": "1",
            "MaxLength": "16",
            "AllowedPattern": "[a-zA-Z][a-zA-Z0-9]*",
            "ConstraintDescription": "must begin with a letter and contain only alphanumeric characters."
        },
        "DBPassword": {
            "NoEcho": "true",
            "Description": "Password for MySQL database access",
            "Type": "String",
            "MinLength": "8",
            "MaxLength": "41",
            "AllowedPattern": "[a-zA-Z0-9]*",
            "ConstraintDescription": "must contain only alphanumeric characters."
        },
        "DBAllocatedStorage": {
            "Default": "5",
            "Description": "The size of the database (Gb)",
            "Type": "Number",
            "MinValue": "5",
            "MaxValue": "1024",
            "ConstraintDescription": "must be between 5 and 1024Gb."
        },
        "DBInstanceClass": {
            "Default": "db.m3.medium",
            "Description": "The database instance type",
            "Type": "String",
            "ConstraintDescription": "must select a valid database instance type."
        },
        "MultiAZDatabase": {
            "Default": "true",
            "Description": "Create a multi-AZ MySQL Amazon RDS database instance",
            "Type": "String",
            "AllowedValues": [
                "true",
                "false"
            ],
            "ConstraintDescription": "must be either true or false."
        },
        "WebServerSecurityGroup": {
            "Description" : "security group id",
            "Type" : "String"
        },
        "DBInstanceName" : {
            "Description" : "database instance name",
            "Type" : "String"
        },
        "PubSub1" : {
            "Description" : "public subnet 1",
            "Type" : "String"
        },
        "PubSub2" : {
            "Description" : "public subnet 2",
            "Type" : "String"
        }
    },


    "Resources": {
      "SubnetGroup": {
        "Type" : "AWS::RDS::DBSubnetGroup",
        "Properties" : {
          "DBSubnetGroupDescription" : "Subnet group",
          "DBSubnetGroupName" : "Subnet2020",
          "SubnetIds" : [ { "Ref" : "PubSub1" } , { "Ref" : "PubSub2" } ]
        }
      },

      "MySQLDatabase": {
      "Type": "AWS::RDS::DBInstance",
      "DeletionPolicy" : "Snapshot",
      "Properties": {
        "CopyTagsToSnapshot" : "True",
        "Engine" : "MySQL",
        "DBName" : { "Ref": "DBName" },
        "DBInstanceIdentifier" : { "Ref": "DBInstanceName" },
        "MultiAZ" : { "Ref": "MultiAZDatabase" },
        "MasterUsername": { "Ref": "DBUsername" },
        "MasterUserPassword": { "Ref" : "DBPassword" },
        "DBInstanceClass": { "Ref" : "DBInstanceClass" },
        "AllocatedStorage": { "Ref" : "DBAllocatedStorage" },
        "DBSubnetGroupName": "Subnet2020",
        "VPCSecurityGroups": [{ "Ref": "WebServerSecurityGroup" }],
        "Tags": [
            {
                "Key": "Name",
                "Value": "davabase"
            }
        ]
        }
        }


    }
}
